{
    "name": "OtherEducationService",
    "fields": [
        {
            "fieldName": "name",
            "fieldType": "String"
        },
        {
            "fieldName": "province",
            "fieldType": "String"
        },
        {
            "fieldName": "district",
            "fieldType": "String"
        },
        {
            "fieldName": "ward",
            "fieldType": "String"
        },
        {
            "fieldName": "active",
            "fieldType": "Boolean"
        }
    ],
    "relationships": [
        {
            "relationshipType": "many-to-one",
            "otherEntityName": "religiousInstitute",
            "otherEntityRelationshipName": "churchOtherEducationServices",
            "relationshipName": "religiousInstitute",
            "otherEntityField": "churchName"
        }
    ],
    "changelogDate": "20190711025720",
    "entityTableName": "other_education_service",
    "dto": "no",
    "pagination": "infinite-scroll",
    "service": "no",
    "jpaMetamodelFiltering": false,
    "fluentMethods": true,
    "clientRootFolder": "",
    "applications": "*"
}