id;civil_registration_no;name;gender;religion;occupation;employer;date_of_birth;estimated_age;martial_status;no_of_children_alive;no_of_children_deceased;no_of_children_congenital;education_formal;education_trade;carer_relationship;diffculty_seeing;diffculty_hearing;diffculty_walking;diffculty_memory;diffculty_self_care;diffculty_communicating;cause_of_disability;health_service_availibility;health_service_accessibility;education_service_availibility;education_service_accessibility;law_service_availibility;law_service_accessibility;welfare_service_availibility;welfare_service_accessibility;sports_service_availibility;sports_service_accessibility;road_service_availibility;road_service_accessibility;market_service_availibility;market_service_accessibility;banking_service_availibility;banking_service_accessibility;tele_communication_service_availibility;tele_communication_service_accessibility;church_service_availibility;church_service_accessibility;member_disabled_persons_organisation;awareness_advocacy_programme_details;livelihood;livelihood_details;talents
1;Mobility;solid state;MALE;Paradigm;application;hard drive;2019-07-10T15:35:14;BETWEEN_18_AND_29;WIDOW_WIDOWER;13008;59439;75826;Movies Sports;target;NON_FAMILY_MEMBER;LOT;ENTIRELY;LOT;SOME;NO;NO;SUBSTANCE_ABUSE;YES_AVAILABLE;NOT_ACCESSIBLE;YES_AVAILABLE;NOT_ACCESSIBLE;NOT_AVAILABLE;NOT_ACCESSIBLE;YES_AVAILABLE;NOT_ACCESSIBLE;YES_AVAILABLE;YES_ACCESSIBLE;NOT_AVAILABLE;YES_ACCESSIBLE;YES_AVAILABLE;YES_ACCESSIBLE;YES_AVAILABLE;NOT_ACCESSIBLE;YES_AVAILABLE;YES_ACCESSIBLE;YES_AVAILABLE;NOT_ACCESSIBLE;false;Delaware Health Borders;EMPLOYED_INFORMAL;back up Tactics;SIGN_LANGUAGE
2;PCI;Sports;FEMALE;Frozen;magenta Turkish Lira;green Chicken Tasty;2019-07-10T11:40:43;BETWEEN_30_AND_39;MARRIED;61660;5197;61294;orchestration Accountability;alarm neural seamless;FRIEND;NO;LOT;NO;NO;SOME;SOME;DISEASE;YES_AVAILABLE;NOT_ACCESSIBLE;YES_AVAILABLE;NOT_ACCESSIBLE;NOT_AVAILABLE;YES_ACCESSIBLE;NOT_AVAILABLE;YES_ACCESSIBLE;NOT_AVAILABLE;YES_ACCESSIBLE;NOT_AVAILABLE;NOT_ACCESSIBLE;YES_AVAILABLE;YES_ACCESSIBLE;NOT_AVAILABLE;YES_ACCESSIBLE;NOT_AVAILABLE;NOT_ACCESSIBLE;YES_AVAILABLE;YES_ACCESSIBLE;false;deposit matrices quantify;EMPLOYED_INFORMAL;Ford;HAND_CRAFTING
3;Gloves Jordan;Uganda Shilling Cotton;FEMALE;De-engineered strategic integrate;array payment;optical transmitter;2019-07-10T16:14:24;BETWEEN_60_AND_64;MARRIED;5708;12297;53116;Program;deposit;FAMILY_MEMBER;NO;LOT;LOT;LOT;ENTIRELY;LOT;PHYSICAL_ABUSE;YES_AVAILABLE;NOT_ACCESSIBLE;YES_AVAILABLE;NOT_ACCESSIBLE;YES_AVAILABLE;YES_ACCESSIBLE;YES_AVAILABLE;YES_ACCESSIBLE;NOT_AVAILABLE;YES_ACCESSIBLE;YES_AVAILABLE;YES_ACCESSIBLE;YES_AVAILABLE;NOT_ACCESSIBLE;NOT_AVAILABLE;NOT_ACCESSIBLE;NOT_AVAILABLE;YES_ACCESSIBLE;YES_AVAILABLE;NOT_ACCESSIBLE;true;eyeballs Movies;CHARITY;connect Berkshire;MUSIC
4;Lead cross-platform;enable;MALE;Investment Account generate;synthesize capacitor Andorra;violet Outdoors deposit;2019-07-10T05:24:01;BETWEEN_30_AND_39;SEPARATED;61735;25677;52308;Quetzal;haptic Moldova archive;FRIEND;LOT;ENTIRELY;ENTIRELY;ENTIRELY;NO;ENTIRELY;DISEASE;YES_AVAILABLE;NOT_ACCESSIBLE;NOT_AVAILABLE;NOT_ACCESSIBLE;NOT_AVAILABLE;NOT_ACCESSIBLE;NOT_AVAILABLE;YES_ACCESSIBLE;NOT_AVAILABLE;NOT_ACCESSIBLE;YES_AVAILABLE;NOT_ACCESSIBLE;NOT_AVAILABLE;NOT_ACCESSIBLE;NOT_AVAILABLE;NOT_ACCESSIBLE;NOT_AVAILABLE;YES_ACCESSIBLE;YES_AVAILABLE;YES_ACCESSIBLE;true;maroon framework;BEGGING;Practical Granite Bacon Handcrafted Soft Car;SPORTS
5;HDD;Pataca Function-based;MALE;reintermediate efficient Producer;Hill Awesome Rubber Computer;Directives payment override;2019-07-10T22:51:41;BETWEEN_50_AND_59;SINGLE;79544;47488;92717;Cross-group redefine;Industrial;FRIEND;SOME;SOME;NO;LOT;SOME;ENTIRELY;PHYSICAL_ABUSE;NOT_AVAILABLE;NOT_ACCESSIBLE;NOT_AVAILABLE;NOT_ACCESSIBLE;NOT_AVAILABLE;NOT_ACCESSIBLE;NOT_AVAILABLE;NOT_ACCESSIBLE;YES_AVAILABLE;YES_ACCESSIBLE;NOT_AVAILABLE;YES_ACCESSIBLE;YES_AVAILABLE;NOT_ACCESSIBLE;NOT_AVAILABLE;YES_ACCESSIBLE;NOT_AVAILABLE;YES_ACCESSIBLE;NOT_AVAILABLE;YES_ACCESSIBLE;false;green Cambridgeshire;SUBSISTENCE_FARMING;Rustic;SCREEN_PAINTING
6;Home Loan Account;Manager open-source;FEMALE;Suriname models;optical;Ports pink;2019-07-10T18:07:36;BETWEEN_18_AND_29;SEPARATED;13380;48134;41858;open-source;synthesize Concrete;NON_FAMILY_MEMBER;SOME;ENTIRELY;SOME;ENTIRELY;SOME;NO;SUBSTANCE_ABUSE;NOT_AVAILABLE;YES_ACCESSIBLE;YES_AVAILABLE;NOT_ACCESSIBLE;YES_AVAILABLE;NOT_ACCESSIBLE;YES_AVAILABLE;YES_ACCESSIBLE;NOT_AVAILABLE;YES_ACCESSIBLE;YES_AVAILABLE;NOT_ACCESSIBLE;YES_AVAILABLE;NOT_ACCESSIBLE;YES_AVAILABLE;YES_ACCESSIBLE;YES_AVAILABLE;NOT_ACCESSIBLE;YES_AVAILABLE;NOT_ACCESSIBLE;true;generate bluetooth deposit;DEPEDNDENT;Compatible seize;MUSIC
7;Response;Research;MALE;New Taiwan Dollar;SCSI;Universal Egypt invoice;2019-07-10T21:38:51;BETWEEN_40_AND_49;MARRIED;17742;32005;54502;Engineer Operations Handmade Wooden Computer;Saint Helena Pound;FRIEND;NO;SOME;LOT;SOME;ENTIRELY;ENTIRELY;OTHERS;NOT_AVAILABLE;NOT_ACCESSIBLE;NOT_AVAILABLE;NOT_ACCESSIBLE;NOT_AVAILABLE;NOT_ACCESSIBLE;YES_AVAILABLE;YES_ACCESSIBLE;YES_AVAILABLE;YES_ACCESSIBLE;NOT_AVAILABLE;YES_ACCESSIBLE;YES_AVAILABLE;YES_ACCESSIBLE;YES_AVAILABLE;NOT_ACCESSIBLE;NOT_AVAILABLE;NOT_ACCESSIBLE;NOT_AVAILABLE;YES_ACCESSIBLE;true;transmit Developer;EMPLOYED_INFORMAL;Japan enable;TECHNICAL_SKILLS
8;Cloned architect;Auto Loan Account;FEMALE;systems;Buckinghamshire Computer;methodologies calculating scale;2019-07-10T13:13:41;BETWEEN_50_AND_59;SINGLE;58581;83169;58647;Denar;productivity Brand systematic;FRIEND;SOME;ENTIRELY;LOT;ENTIRELY;NO;NO;PHYSICAL_ABUSE;NOT_AVAILABLE;NOT_ACCESSIBLE;NOT_AVAILABLE;YES_ACCESSIBLE;YES_AVAILABLE;NOT_ACCESSIBLE;YES_AVAILABLE;NOT_ACCESSIBLE;YES_AVAILABLE;NOT_ACCESSIBLE;YES_AVAILABLE;YES_ACCESSIBLE;YES_AVAILABLE;NOT_ACCESSIBLE;NOT_AVAILABLE;YES_ACCESSIBLE;NOT_AVAILABLE;NOT_ACCESSIBLE;YES_AVAILABLE;YES_ACCESSIBLE;true;Wallis and Futuna Concrete;SELF_EMPLOYED;Namibia Intelligent;SIGN_LANGUAGE
9;Branding;olive Practical AI;MALE;haptic;cross-platform;Associate neural;2019-07-10T15:01:08;ABOVE_65;WIDOW_WIDOWER;51938;1794;20488;SMTP;Pizza Enterprise-wide Division;FRIEND;ENTIRELY;LOT;SOME;ENTIRELY;SOME;ENTIRELY;DISEASE;NOT_AVAILABLE;YES_ACCESSIBLE;YES_AVAILABLE;YES_ACCESSIBLE;NOT_AVAILABLE;NOT_ACCESSIBLE;NOT_AVAILABLE;NOT_ACCESSIBLE;NOT_AVAILABLE;NOT_ACCESSIBLE;NOT_AVAILABLE;NOT_ACCESSIBLE;YES_AVAILABLE;NOT_ACCESSIBLE;NOT_AVAILABLE;NOT_ACCESSIBLE;YES_AVAILABLE;YES_ACCESSIBLE;NOT_AVAILABLE;YES_ACCESSIBLE;true;Chile Realigned;EMPLOYED_FORM;program;HAND_CRAFTING
10;ivory Credit Card Account;Home Loan Account bricks-and-clicks;MALE;Soft;Incredible open architecture Movies;Mouse SMTP Vision-oriented;2019-07-10T06:51:51;BETWEEN_40_AND_49;DEFACTO;21552;30531;36037;Small Soft Gloves;invoice Interactions;FRIEND;NO;SOME;LOT;NO;ENTIRELY;NO;DISEASE;NOT_AVAILABLE;NOT_ACCESSIBLE;NOT_AVAILABLE;YES_ACCESSIBLE;NOT_AVAILABLE;NOT_ACCESSIBLE;NOT_AVAILABLE;NOT_ACCESSIBLE;NOT_AVAILABLE;YES_ACCESSIBLE;YES_AVAILABLE;YES_ACCESSIBLE;YES_AVAILABLE;YES_ACCESSIBLE;YES_AVAILABLE;NOT_ACCESSIBLE;YES_AVAILABLE;YES_ACCESSIBLE;NOT_AVAILABLE;NOT_ACCESSIBLE;false;extend;SELF_EMPLOYED;Investment Account;SCREEN_PAINTING
